recipient, email, var1, var2
Petra 1, petra.barus@gmail.com, Halo 1, Halo 2
Petra 2, petra.barus@ymail.com, Halo 2, Halo 3
Petra 3, van_odin@yahoo.com, Halo 3, Halo 4
Petra 4, if15059@students.if.itb.ac.id, Halo 4, Halo 5
Petra 5, if29075@students.if.itb.ac.id, Halo 5, Halo 6